
Golden State Warriors,2016,Draymond Green,25,23,23,879,119,276,.431,38,104,.365,81,172,.471,.500,79,107,.738,38,190,228,138,37,41,56,81,355
Golden State Warriors,2016,Klay Thompson,25,24,24,849,201,453,.444,98,231,.424,103,222,.464,.552,82,96,.854,15,73,88,54,26,9,47,53,582
Golden State Warriors,2016,Andre Iguodala,32,24,3,767,78,164,.476,25,65,.385,53,99,.535,.552,32,57,.561,35,70,105,90,29,10,23,37,213
Golden State Warriors,2016,Harrison Barnes,23,24,23,743,82,213,.385,26,76,.342,56,137,.409,.446,26,34,.765,27,85,112,30,17,4,18,46,216
Golden State Warriors,2016,Stephen Curry,27,18,17,614,148,338,.438,80,198,.404,68,140,.486,.556,76,83,.916,14,85,99,93,26,5,75,39,452
Golden State Warriors,2016,Shaun Livingston,30,24,7,514,82,168,.488,0,1,.000,82,167,.491,.488,32,37,.865,13,63,76,80,12,5,29,48,196
Golden State Warriors,2016,Andrew Bogut,31,22,22,365,48,77,.623,0,2,.000,48,75,.640,.623,5,14,.357,47,78,125,30,14,35,19,72,101
Golden State Warriors,2016,Leandro Barbosa,33,23,0,254,51,88,.580,11,28,.393,40,60,.667,.642,16,21,.762,11,16,27,15,11,1,11,24,129
Golden State Warriors,2016,Festus Ezeli,26,23,1,203,37,69,.536,0,0,,37,69,.536,.536,19,44,.432,23,38,61,8,1,7,14,34,93
Golden State Warriors,2016,Marreese Speights,28,24,0,201,46,118,.390,18,43,.419,28,75,.373,.466,24,31,.774,15,32,47,11,3,8,20,43,134
Golden State Warriors,2016,Ian Clark,24,16,0,154,26,53,.491,6,18,.333,20,35,.571,.547,8,10,.800,2,15,17,16,8,0,9,18,66
Golden State Warriors,2016,Brandon Rush,30,14,0,110,9,20,.450,4,12,.333,5,8,.625,.550,1,2,.500,0,23,23,3,2,2,2,9,23
Golden State Warriors,2016,Anderson Varejao,33,17,0,93,5,14,.357,0,0,,5,14,.357,.357,10,19,.526,12,9,21,13,2,2,2,17,20
Golden State Warriors,2016,James Michael McAdoo,23,8,0,38,2,4,.500,0,0,,2,4,.500,.500,1,4,.250,0,8,8,2,3,2,1,6,5
Oklahoma City Thunder,2016,Kevin Durant,27,18,18,726,175,407,.430,31,110,.282,144,297,.485,.468,130,146,.890,13,115,128,60,18,18,65,37,511
Oklahoma City Thunder,2016,Russell Westbrook,27,18,18,674,159,393,.405,34,105,.324,125,288,.434,.448,116,140,.829,41,83,124,198,46,2,78,43,468
Oklahoma City Thunder,2016,Serge Ibaka,26,18,18,602,85,163,.521,31,69,.449,54,94,.574,.617,15,20,.750,23,90,113,10,14,24,9,51,216
Oklahoma City Thunder,2016,Steven Adams,22,18,18,553,68,111,.613,0,1,.000,68,110,.618,.613,46,73,.630,62,109,171,13,9,14,17,55,182
Oklahoma City Thunder,2016,Dion Waiters,24,18,0,491,55,132,.417,21,56,.375,34,76,.447,.496,20,30,.667,6,41,47,42,10,3,20,42,151
Oklahoma City Thunder,2016,Andre Roberson,24,18,18,471,40,86,.465,12,37,.324,28,49,.571,.535,8,20,.400,25,76,101,14,23,19,11,45,100
Oklahoma City Thunder,2016,Enes Kanter,23,18,0,323,65,118,.551,2,14,.143,63,104,.606,.559,38,45,.844,47,64,111,5,5,11,17,40,170
Oklahoma City Thunder,2016,Randy Foye,32,16,0,190,14,41,.341,8,26,.308,6,15,.400,.439,4,4,1.000,2,18,20,13,2,3,11,18,40
Oklahoma City Thunder,2016,Nick Collison,35,9,0,79,4,6,.667,0,0,,4,6,.667,.667,1,2,.500,3,8,11,5,8,0,1,17,9
Oklahoma City Thunder,2016,Anthony Morrow,30,14,0,76,11,24,.458,5,14,.357,6,10,.600,.563,10,10,1.000,0,2,2,1,1,0,4,5,37
Oklahoma City Thunder,2016,Cameron Payne,21,10,0,64,7,26,.269,2,10,.200,5,16,.313,.308,2,4,.500,0,4,4,8,2,2,8,7,18
Oklahoma City Thunder,2016,Kyle Singler,27,6,0,51,3,9,.333,2,4,.500,1,5,.200,.444,0,2,.000,1,6,7,0,1,0,0,4,8
Oklahoma City Thunder,2016,Nazr Mohammed,38,5,0,10,1,2,.500,0,0,,1,2,.500,.500,0,0,,1,2,3,0,0,1,1,1,2
Oklahoma City Thunder,2016,Josh Huestis,24,2,0,10,1,3,.333,1,2,.500,0,1,.000,.500,0,0,,1,2,3,0,0,0,0,1,3
Portland Trail Blazers,2016,C.J. McCollum,24,11,11,442,84,197,.426,20,58,.345,64,139,.460,.477,37,46,.804,7,33,40,36,10,5,20,30,225
Portland Trail Blazers,2016,Damian Lillard,25,11,11,437,89,242,.368,42,107,.393,47,135,.348,.455,71,78,.910,12,35,47,69,14,3,33,23,291
Portland Trail Blazers,2016,Al-Farouq Aminu,25,11,11,372,56,128,.438,28,70,.400,28,58,.483,.547,21,29,.724,23,72,95,20,8,10,21,31,161
Portland Trail Blazers,2016,Mason Plumlee,25,11,11,306,28,70,.400,0,0,,28,70,.400,.400,21,33,.636,37,93,130,53,7,11,25,42,77
Portland Trail Blazers,2016,Allen Crabbe,23,11,0,302,38,73,.521,15,35,.429,23,38,.605,.623,14,19,.737,5,27,32,15,7,1,6,23,105
Portland Trail Blazers,2016,Maurice Harkless,22,11,11,272,47,110,.427,15,44,.341,32,66,.485,.495,12,25,.480,22,34,56,7,10,3,11,38,121
Portland Trail Blazers,2016,Gerald Henderson,28,11,0,234,30,82,.366,7,19,.368,23,63,.365,.409,9,12,.750,6,29,35,17,6,3,5,21,76
Portland Trail Blazers,2016,Ed Davis,26,11,0,205,21,40,.525,0,2,.000,21,38,.553,.525,19,33,.576,26,49,75,14,2,7,10,33,61
Portland Trail Blazers,2016,Brian Roberts,30,10,0,36,2,9,.222,0,4,.000,2,5,.400,.222,4,6,.667,1,0,1,3,0,0,1,5,8
Portland Trail Blazers,2016,Chris Kaman,33,4,0,32,7,18,.389,0,0,,7,18,.389,.389,0,0,,2,6,8,1,2,0,6,10,14
Portland Trail Blazers,2016,Noah Vonleh,20,6,0,12,0,3,.000,0,0,,0,3,.000,.000,0,0,,1,3,4,2,2,0,0,1,0
Portland Trail Blazers,2016,Luis Montero,22,6,0,8,3,3,1.000,2,2,1.000,1,1,1.000,1.333,0,0,,0,0,0,0,0,0,0,1,8
Portland Trail Blazers,2016,Pat Connaughton,23,6,0,8,3,5,.600,2,3,.667,1,2,.500,.800,0,0,,0,1,1,0,0,0,0,0,8
Cleveland Cavaliers,2016,LeBron James,31,21,21,822,219,417,.525,32,94,.340,187,323,.579,.564,82,124,.661,42,158,200,160,49,27,75,54,552
Cleveland Cavaliers,2016,Kyrie Irving,23,21,21,774,201,423,.475,51,116,.440,150,307,.489,.535,77,88,.875,15,47,62,98,36,13,48,46,530
Cleveland Cavaliers,2016,J.R. Smith,30,21,21,730,82,188,.436,65,151,.430,17,37,.459,.609,13,21,.619,7,60,67,29,26,5,11,55,242
Cleveland Cavaliers,2016,Tristan Thompson,24,21,21,622,49,93,.527,0,0,,49,93,.527,.527,42,73,.575,86,102,188,15,8,18,17,55,140
Cleveland Cavaliers,2016,Kevin Love,27,20,19,613,92,239,.385,46,111,.414,46,128,.359,.481,63,75,.840,34,141,175,42,9,8,27,34,293
Cleveland Cavaliers,2016,Richard Jefferson,35,21,2,381,44,84,.524,11,28,.393,33,56,.589,.589,15,20,.750,16,58,74,14,10,1,13,34,114
Cleveland Cavaliers,2016,Iman Shumpert,25,21,0,367,25,60,.417,13,34,.382,12,26,.462,.525,7,11,.636,10,37,47,17,10,3,13,36,70
Cleveland Cavaliers,2016,Matthew Dellavedova,25,20,0,241,26,74,.351,8,31,.258,18,43,.419,.405,18,24,.750,4,11,15,56,1,1,14,31,78
Cleveland Cavaliers,2016,Channing Frye,32,17,0,237,41,69,.594,26,46,.565,15,23,.652,.783,6,7,.857,5,36,41,5,6,9,5,37,114
Cleveland Cavaliers,2016,Timofey Mozgov,29,13,0,76,6,15,.400,0,0,,6,15,.400,.400,3,4,.750,5,16,21,2,3,3,8,16,15
Cleveland Cavaliers,2016,Mo Williams,33,13,0,68,8,28,.286,3,13,.231,5,15,.333,.339,1,2,.500,0,6,6,3,4,0,10,8,20
Cleveland Cavaliers,2016,James Jones,35,12,0,55,2,10,.200,1,7,.143,1,3,.333,.250,1,4,.250,1,3,4,3,0,0,1,3,6
Cleveland Cavaliers,2016,Dahntay Jones,35,15,0,50,6,13,.462,1,3,.333,5,10,.500,.500,4,5,.800,0,7,7,2,1,1,1,3,17
Cleveland Cavaliers,2016,Jordan McRae,24,2,0,4,4,4,1.000,1,1,1.000,3,3,1.000,1.125,0,0,,0,2,2,0,0,0,0,0,9
San Antonio Spurs,2016,Kawhi Leonard,24,10,10,339,83,166,.500,17,39,.436,66,127,.520,.551,42,51,.824,14,49,63,28,26,14,16,21,225
San Antonio Spurs,2016,LaMarcus Aldridge,30,10,10,337,88,169,.521,2,2,1.000,86,167,.515,.527,41,46,.891,22,61,83,10,4,14,11,18,219
San Antonio Spurs,2016,Danny Green,28,10,10,267,30,65,.462,24,48,.500,6,17,.353,.646,2,3,.667,0,31,31,7,21,8,6,20,86
San Antonio Spurs,2016,Tony Parker,33,10,10,264,44,98,.449,4,16,.250,40,82,.488,.469,12,14,.857,1,21,22,53,6,2,18,15,104
San Antonio Spurs,2016,Tim Duncan,39,10,10,218,22,52,.423,0,0,,22,52,.423,.423,15,21,.714,10,38,48,14,2,13,10,18,59
San Antonio Spurs,2016,Manu Ginobili,38,10,0,192,20,47,.426,9,21,.429,11,26,.423,.521,18,23,.783,6,21,27,25,8,3,7,25,67
San Antonio Spurs,2016,David West,35,10,0,176,25,55,.455,3,6,.500,22,49,.449,.482,5,9,.556,13,24,37,13,6,7,7,19,58
San Antonio Spurs,2016,Patrick Mills,27,10,0,167,23,53,.434,13,36,.361,10,17,.588,.557,7,11,.636,0,14,14,20,7,0,8,3,66
San Antonio Spurs,2016,Boris Diaw,33,9,0,159,21,46,.457,2,6,.333,19,40,.475,.478,3,4,.750,2,17,19,21,2,4,6,9,47
San Antonio Spurs,2016,Kyle Anderson,22,10,0,129,8,25,.320,1,3,.333,7,22,.318,.340,6,7,.857,2,22,24,7,6,3,4,11,23
San Antonio Spurs,2016,Kevin Martin,32,5,0,49,8,20,.400,4,8,.500,4,12,.333,.500,2,3,.667,0,4,4,3,1,0,6,5,22
San Antonio Spurs,2016,Boban Marjanovic,27,7,0,42,8,12,.667,0,0,,8,12,.667,.667,8,9,.889,4,10,14,3,0,2,3,10,24
San Antonio Spurs,2016,Andre Miller,39,5,0,35,3,7,.429,1,3,.333,2,4,.500,.500,2,2,1.000,2,3,5,7,0,0,0,4,9
San Antonio Spurs,2016,Jonathon Simmons,26,3,0,26,4,10,.400,2,3,.667,2,7,.286,.500,1,2,.500,3,1,4,2,2,0,1,4,11
Atlanta Hawks,2016,Paul Millsap,30,10,10,365,59,137,.431,8,33,.242,51,104,.490,.460,41,55,.745,28,66,94,27,13,23,26,29,167
Atlanta Hawks,2016,Al Horford,29,10,10,327,54,116,.466,11,28,.393,43,88,.489,.513,15,16,.938,13,52,65,30,12,24,17,25,134
Atlanta Hawks,2016,Kent Bazemore,26,10,10,325,44,121,.364,16,61,.262,28,60,.467,.430,15,22,.682,8,58,66,19,15,6,10,14,119
Atlanta Hawks,2016,Kyle Korver,34,10,8,316,35,75,.467,24,54,.444,11,21,.524,.627,9,9,1.000,3,45,48,10,9,4,8,23,103
Atlanta Hawks,2016,Jeff Teague,27,10,10,279,46,121,.380,9,36,.250,37,85,.435,.417,44,52,.846,3,16,19,62,6,2,25,30,145
Atlanta Hawks,2016,Thabo Sefolosha,31,10,2,203,22,46,.478,7,19,.368,15,27,.556,.554,8,15,.533,8,33,41,17,10,6,10,17,59
Atlanta Hawks,2016,Dennis Schroder,22,10,0,191,47,104,.452,12,35,.343,35,69,.507,.510,11,13,.846,6,13,19,36,4,1,21,24,117
Atlanta Hawks,2016,Mike Scott,27,10,0,161,25,40,.625,8,16,.500,17,24,.708,.725,7,8,.875,5,27,32,5,3,3,8,20,65
Atlanta Hawks,2016,Tim Hardaway,23,9,0,87,7,26,.269,2,14,.143,5,12,.417,.308,4,6,.667,0,9,9,7,0,1,3,2,20
Atlanta Hawks,2016,Mike Muscala,24,9,0,67,10,20,.500,2,6,.333,8,14,.571,.550,2,2,1.000,7,10,17,3,0,1,3,6,24
Atlanta Hawks,2016,Kris Humphries,30,4,0,56,13,28,.464,5,10,.500,8,18,.444,.554,6,6,1.000,8,16,24,4,2,5,2,9,37
Atlanta Hawks,2016,Kirk Hinrich,35,6,0,27,2,7,.286,1,3,.333,1,4,.250,.357,0,0,,0,4,4,3,0,0,0,2,5
Atlanta Hawks,2016,Lamar Patterson,24,4,0,20,2,7,.286,1,3,.333,1,4,.250,.357,1,1,1.000,0,5,5,3,1,0,4,1,6
Los Angeles Clippers,2016,Jamal Crawford,35,6,1,199,39,103,.379,4,21,.190,35,82,.427,.398,22,25,.880,2,11,13,13,10,0,9,9,104
Los Angeles Clippers,2016,DeAndre Jordan,27,6,6,198,24,38,.632,0,0,,24,38,.632,.632,22,59,.373,30,68,98,11,7,16,7,17,70
Los Angeles Clippers,2016,J.J. Redick,31,6,6,166,34,79,.430,11,31,.355,23,48,.479,.500,2,3,.667,1,11,12,5,1,1,5,11,81
Los Angeles Clippers,2016,Jeff Green,29,6,1,159,21,46,.457,4,10,.400,17,36,.472,.500,15,25,.600,3,16,19,4,6,2,3,12,61
Los Angeles Clippers,2016,Austin Rivers,23,6,2,144,26,61,.426,4,17,.235,22,44,.500,.459,6,9,.667,4,12,16,16,3,0,7,12,62
Los Angeles Clippers,2016,Blake Griffin,26,4,4,127,20,53,.377,1,2,.500,19,51,.373,.387,19,25,.760,7,28,35,16,3,2,9,9,60
Los Angeles Clippers,2016,Chris Paul,30,4,4,125,37,76,.487,6,20,.300,31,56,.554,.526,15,15,1.000,4,12,16,29,9,0,4,12,95
Los Angeles Clippers,2016,Luc Mbah a Moute,29,5,5,78,4,6,.667,0,0,,4,6,.667,.667,1,1,1.000,2,8,10,1,3,0,2,9,9
Los Angeles Clippers,2016,Wesley Johnson,28,6,0,77,5,14,.357,3,9,.333,2,5,.400,.464,3,3,1.000,5,13,18,2,1,4,2,6,16
Los Angeles Clippers,2016,Cole Aldrich,27,6,0,77,10,15,.667,0,0,,10,15,.667,.667,3,6,.500,8,22,30,3,6,3,2,11,23
Los Angeles Clippers,2016,Paul Pierce,38,5,1,54,2,12,.167,1,5,.200,1,7,.143,.208,1,4,.250,0,6,6,1,2,0,2,6,6
Los Angeles Clippers,2016,Pablo Prigioni,38,5,0,26,0,5,.000,0,2,.000,0,3,.000,.000,0,0,,2,1,3,7,0,0,3,8,0
Los Angeles Clippers,2016,C.J. Wilcox,25,2,0,7,0,1,.000,0,0,,0,1,.000,.000,0,0,,0,1,1,1,0,0,0,1,0
Los Angeles Clippers,2016,Jeff Ayres,28,2,0,2,1,1,1.000,0,0,,1,1,1.000,1.000,1,1,1.000,0,0,0,0,0,0,0,0,3
Miami Heat,2016,Luol Deng,30,14,14,495,65,138,.471,24,57,.421,41,81,.506,.558,32,38,.842,19,64,83,22,13,9,23,24,186
Miami Heat,2016,Joe Johnson,34,14,14,492,68,158,.430,13,46,.283,55,112,.491,.472,21,24,.875,7,59,66,35,8,3,18,27,170
Miami Heat,2016,Dwyane Wade,34,14,14,473,119,254,.469,12,23,.522,107,231,.463,.492,50,64,.781,12,67,79,60,11,13,38,22,300
Miami Heat,2016,Goran Dragic,29,14,14,472,91,206,.442,16,46,.348,75,160,.469,.481,33,43,.767,11,58,69,54,6,3,31,46,231
Miami Heat,2016,Josh Richardson,22,14,0,387,33,89,.371,17,46,.370,16,43,.372,.466,10,14,.714,10,40,50,22,6,13,12,37,93
Miami Heat,2016,Justise Winslow,19,13,2,330,32,74,.432,5,18,.278,27,56,.482,.466,21,30,.700,17,46,63,8,8,4,12,35,90
Miami Heat,2016,Hassan Whiteside,26,10,10,291,47,69,.681,0,0,,47,69,.681,.681,26,44,.591,26,83,109,3,8,28,13,34,120
Miami Heat,2016,Josh McRoberts,28,10,0,134,16,34,.471,0,7,.000,16,27,.593,.471,6,6,1.000,7,19,26,9,5,5,4,20,38
Miami Heat,2016,Gerald Green,30,12,0,110,16,49,.327,4,14,.286,12,35,.343,.367,4,5,.800,2,15,17,1,4,1,2,14,40
Miami Heat,2016,Udonis Haslem,35,9,0,85,8,15,.533,0,0,,8,15,.533,.533,5,7,.714,11,20,31,4,0,1,7,13,21
Miami Heat,2016,Amar'e Stoudemire,33,9,2,82,11,19,.579,0,0,,11,19,.579,.579,8,8,1.000,3,10,13,0,5,3,9,14,30
Miami Heat,2016,Tyler Johnson,23,5,0,61,5,11,.455,3,6,.500,2,5,.400,.591,8,11,.727,2,5,7,8,1,0,2,8,21
Miami Heat,2016,Dorell Wright,30,5,0,19,5,10,.500,2,5,.400,3,5,.600,.600,4,4,1.000,0,6,6,2,0,0,0,2,16
Miami Heat,2016,Briante Weber,23,2,0,6,0,1,.000,0,0,,0,1,.000,.000,0,0,,0,0,0,1,1,0,0,1,0
Detroit Pistons,2016,Kentavious Caldwell-Pope,22,4,4,161,22,50,.440,12,27,.444,10,23,.435,.560,5,7,.714,2,15,17,11,7,1,2,7,61
Detroit Pistons,2016,Tobias Harris,23,4,4,156,21,46,.457,4,12,.333,17,34,.500,.500,12,13,.923,6,32,38,12,3,3,6,11,58
Detroit Pistons,2016,Reggie Jackson,25,4,4,147,25,55,.455,3,18,.167,22,37,.595,.482,4,4,1.000,2,11,13,37,6,2,10,10,57
Detroit Pistons,2016,Marcus Morris,26,4,4,144,22,47,.468,7,18,.389,15,29,.517,.543,20,23,.870,2,11,13,10,2,0,5,17,71
Detroit Pistons,2016,Andre Drummond,22,4,4,131,28,54,.519,0,1,.000,28,53,.528,.519,11,34,.324,12,24,36,0,1,6,4,8,67
Detroit Pistons,2016,Stanley Johnson,19,4,0,81,12,23,.522,6,10,.600,6,13,.462,.652,2,2,1.000,0,16,16,0,1,0,3,10,32
Detroit Pistons,2016,Aron Baynes,29,4,0,44,4,9,.444,0,0,,4,9,.444,.444,2,3,.667,3,5,8,2,0,0,3,4,10
Detroit Pistons,2016,Steve Blake,35,4,0,43,1,5,.200,1,2,.500,0,3,.000,.300,1,2,.500,0,4,4,10,0,0,5,7,4
Detroit Pistons,2016,Anthony Tolliver,30,3,0,26,2,4,.500,0,2,.000,2,2,1.000,.500,0,0,,1,3,4,1,0,1,0,0,4
Detroit Pistons,2016,Reggie Bullock,24,2,0,22,5,6,.833,2,3,.667,3,3,1.000,1.000,0,0,,0,2,2,3,1,0,0,2,12
Detroit Pistons,2016,Spencer Dinwiddie,22,1,0,2,1,1,1.000,0,0,,1,1,1.000,1.000,0,0,,0,0,0,1,0,0,0,0,2
Detroit Pistons,2016,Jodie Meeks,28,1,0,2,1,1,1.000,0,0,,1,1,1.000,1.000,0,0,,0,0,0,0,0,0,0,0,2
Boston Celtics,2016,Isaiah Thomas,26,6,6,220,47,119,.395,13,46,.283,34,73,.466,.450,38,47,.809,2,16,18,30,4,5,14,18,145
Boston Celtics,2016,Evan Turner,27,6,4,214,31,85,.365,3,14,.214,28,71,.394,.382,14,18,.778,8,26,34,27,8,6,17,19,79
Boston Celtics,2016,Jae Crowder,25,6,6,197,20,72,.278,10,41,.244,10,31,.323,.347,7,11,.636,5,34,39,13,9,3,7,17,57
Boston Celtics,2016,Marcus Smart,21,6,1,193,22,60,.367,11,32,.344,11,28,.393,.458,17,21,.810,8,19,27,18,10,5,15,17,72
Boston Celtics,2016,Jonas Jerebko,28,6,4,162,22,46,.478,7,22,.318,15,24,.625,.554,4,5,.800,7,34,41,10,2,4,5,15,55
Boston Celtics,2016,Amir Johnson,28,6,6,134,22,33,.667,0,2,.000,22,31,.710,.667,7,9,.778,11,32,43,4,1,8,10,13,51
Boston Celtics,2016,Terry Rozier,21,5,0,99,9,23,.391,4,11,.364,5,12,.417,.478,2,2,1.000,3,14,17,6,1,3,2,5,24
Boston Celtics,2016,Jared Sullinger,23,6,2,81,13,42,.310,2,4,.500,11,38,.289,.333,3,4,.750,10,17,27,7,1,0,6,16,31
Boston Celtics,2016,R.J. Hunter,22,5,0,41,2,9,.222,1,5,.200,1,4,.250,.278,0,0,,1,5,6,3,0,1,1,3,5
Boston Celtics,2016,Tyler Zeller,26,3,0,38,7,15,.467,0,0,,7,15,.467,.467,4,6,.667,4,11,15,2,0,2,2,1,18
Boston Celtics,2016,Avery Bradley,25,1,1,33,7,16,.438,1,7,.143,6,9,.667,.469,3,3,1.000,2,1,3,1,1,1,1,2,18
Boston Celtics,2016,Kelly Olynyk,24,4,0,32,1,9,.111,0,3,.000,1,6,.167,.111,0,0,,2,2,4,3,1,0,4,5,2
Boston Celtics,2016,Jordan Mickey,21,2,0,10,2,4,.500,0,0,,2,4,.500,.500,0,0,,1,1,2,2,0,1,0,0,4
Boston Celtics,2016,James Young,20,3,0,10,1,3,.333,0,1,.000,1,2,.500,.333,0,0,,0,0,0,0,0,0,1,1,2
Boston Celtics,2016,John Holland,27,1,0,1,0,1,.000,0,1,.000,0,0,,.000,0,0,,0,0,0,0,0,0,0,0,0
Dallas Mavericks,2016,Wesley Matthews,29,5,5,173,20,60,.333,10,35,.286,10,25,.400,.417,15,19,.789,4,14,18,6,6,0,4,14,65
Dallas Mavericks,2016,Raymond Felton,31,5,4,172,32,69,.464,4,14,.286,28,55,.509,.493,7,11,.636,2,21,23,23,6,0,12,14,75
Dallas Mavericks,2016,Dirk Nowitzki,37,5,5,170,41,83,.494,4,11,.364,37,72,.514,.518,16,17,.941,3,21,24,8,2,3,7,9,102
Dallas Mavericks,2016,Devin Harris,32,5,0,121,15,30,.500,4,13,.308,11,17,.647,.567,5,10,.500,1,13,14,8,3,0,3,16,39
Dallas Mavericks,2016,Zaza Pachulia,31,5,4,112,9,24,.375,0,0,,9,24,.375,.375,15,17,.882,10,17,27,16,3,1,2,13,33
Dallas Mavericks,2016,J.J. Barea,31,4,2,100,11,34,.324,1,8,.125,10,26,.385,.338,2,2,1.000,0,6,6,20,0,0,11,8,25
Dallas Mavericks,2016,Justin Anderson,22,5,1,95,17,37,.459,4,13,.308,13,24,.542,.514,9,14,.643,9,11,20,7,4,3,5,12,47
Dallas Mavericks,2016,Salah Mejri,29,4,1,76,7,10,.700,0,0,,7,10,.700,.700,5,12,.417,5,8,13,1,3,5,0,11,19
Dallas Mavericks,2016,Dwight Powell,24,4,0,64,9,19,.474,0,1,.000,9,18,.500,.474,6,11,.545,9,8,17,4,1,0,1,5,24
Dallas Mavericks,2016,Deron Williams,31,3,3,49,6,18,.333,3,7,.429,3,11,.273,.417,0,0,,0,2,2,8,1,0,7,6,15
Dallas Mavericks,2016,David Lee,32,2,0,33,6,8,.750,0,0,,6,8,.750,.750,0,0,,1,5,6,1,0,0,0,7,12
Dallas Mavericks,2016,Charlie Villanueva,31,4,0,20,3,12,.250,1,5,.200,2,7,.286,.292,2,2,1.000,0,2,2,1,0,0,1,2,9
Dallas Mavericks,2016,JaVale McGee,28,2,0,14,1,2,.500,0,0,,1,2,.500,.500,2,6,.333,2,1,3,0,1,0,3,3,4
Indiana Pacers,2016,Paul George,25,7,7,275,56,123,.455,18,43,.419,38,80,.475,.528,61,64,.953,9,44,53,30,14,5,23,24,191
Indiana Pacers,2016,George Hill,29,7,7,235,32,57,.561,13,27,.481,19,30,.633,.675,18,22,.818,6,13,19,15,6,1,8,16,95
Indiana Pacers,2016,Monta Ellis,30,7,7,225,33,76,.434,7,21,.333,26,55,.473,.480,8,10,.800,4,23,27,30,15,0,17,17,81
Indiana Pacers,2016,Solomon Hill,24,7,0,198,14,31,.452,11,19,.579,3,12,.250,.629,15,16,.938,5,23,28,8,2,0,3,20,54
Indiana Pacers,2016,Myles Turner,19,7,4,197,33,71,.465,0,2,.000,33,69,.478,.465,6,9,.667,16,29,45,3,2,23,12,24,72
Indiana Pacers,2016,Ian Mahinmi,29,7,7,172,21,42,.500,0,0,,21,42,.500,.500,15,25,.600,12,24,36,8,5,6,14,25,57
Indiana Pacers,2016,Rodney Stuckey,29,7,0,125,17,43,.395,5,10,.500,12,33,.364,.453,5,9,.556,1,14,15,14,4,1,6,9,44
Indiana Pacers,2016,C.J. Miles,28,7,0,92,10,38,.263,2,20,.100,8,18,.444,.289,2,3,.667,4,20,24,4,1,1,3,7,24
Indiana Pacers,2016,Ty Lawson,28,7,0,74,6,18,.333,0,3,.000,6,15,.400,.333,4,6,.667,1,6,7,10,3,0,6,8,16
Indiana Pacers,2016,Lavoy Allen,26,6,3,51,3,10,.300,0,0,,3,10,.300,.300,0,0,,4,10,14,2,1,1,1,2,6
Indiana Pacers,2016,Jordan Hill,28,5,0,15,0,3,.000,0,0,,0,3,.000,.000,0,0,,2,4,6,2,0,0,0,1,0
Indiana Pacers,2016,Glenn Robinson,22,4,0,10,3,4,.750,0,0,,3,4,.750,.750,1,1,1.000,0,0,0,0,0,1,0,0,7
Indiana Pacers,2016,Joseph Young,23,4,0,10,3,8,.375,1,4,.250,2,4,.500,.438,2,2,1.000,0,1,1,1,0,0,2,3,9
Toronto Raptors,2016,Kyle Lowry,29,20,20,766,131,330,.397,42,138,.304,89,192,.464,.461,78,104,.750,18,76,94,119,32,3,63,73,382
Toronto Raptors,2016,DeMar DeRozan,26,20,20,746,157,398,.394,4,26,.154,153,372,.411,.399,100,123,.813,13,70,83,54,22,3,45,52,418
Toronto Raptors,2016,DeMarre Carroll,29,20,19,596,62,159,.390,26,79,.329,36,80,.450,.472,27,36,.750,23,58,81,17,18,7,18,62,177
Toronto Raptors,2016,Patrick Patterson,26,20,9,583,55,136,.404,21,70,.300,34,66,.515,.482,22,26,.846,29,48,77,24,7,9,18,31,153
Toronto Raptors,2016,Bismack Biyombo,23,20,10,506,40,69,.580,0,0,,40,69,.580,.580,43,72,.597,53,134,187,8,8,27,21,48,123
Toronto Raptors,2016,Cory Joseph,24,20,0,452,69,148,.466,8,24,.333,61,124,.492,.493,24,32,.750,11,30,41,47,18,2,22,47,170
Toronto Raptors,2016,Terrence Ross,24,20,0,335,46,119,.387,21,64,.328,25,55,.455,.475,13,20,.650,4,28,32,11,13,5,16,28,126
Toronto Raptors,2016,Jonas Valanciunas,23,12,10,321,68,120,.567,0,0,,68,120,.567,.567,29,39,.744,48,81,129,11,10,14,18,32,165
Toronto Raptors,2016,Norman Powell,22,18,3,206,27,70,.386,7,26,.269,20,44,.455,.436,7,8,.875,4,23,27,6,13,2,5,18,68
Toronto Raptors,2016,Luis Scola,35,11,9,140,8,31,.258,4,21,.190,4,10,.400,.323,8,11,.727,2,16,18,7,3,0,5,22,28
Toronto Raptors,2016,James Johnson,28,10,0,98,12,25,.480,4,9,.444,8,16,.500,.560,2,3,.667,3,12,15,6,3,0,7,13,30
Toronto Raptors,2016,Jason Thompson,29,10,0,55,4,9,.444,0,1,.000,4,8,.500,.444,0,3,.000,6,5,11,1,0,1,1,6,8
Toronto Raptors,2016,Delon Wright,23,9,0,41,3,10,.300,0,1,.000,3,9,.333,.300,8,13,.615,1,3,4,3,3,0,2,2,14
Toronto Raptors,2016,Lucas Nogueira,23,5,0,29,3,4,.750,0,0,,3,4,.750,.750,0,0,,1,7,8,0,0,0,0,3,6
Houston Rockets,2016,James Harden,26,5,5,193,41,100,.410,13,42,.310,28,58,.483,.475,38,45,.844,7,19,26,38,12,1,26,13,133
Houston Rockets,2016,Trevor Ariza,30,5,5,181,13,51,.255,4,28,.143,9,23,.391,.294,3,4,.750,7,14,21,4,13,1,12,16,33
Houston Rockets,2016,Dwight Howard,30,5,5,180,26,48,.542,0,1,.000,26,47,.553,.542,14,38,.368,26,44,70,8,4,7,12,21,66
Houston Rockets,2016,Patrick Beverley,27,5,5,129,10,37,.270,3,14,.214,7,23,.304,.311,6,6,1.000,4,18,22,11,2,2,4,17,29
Houston Rockets,2016,Jason Terry,38,5,0,124,13,38,.342,6,19,.316,7,19,.368,.421,3,3,1.000,1,10,11,6,2,1,3,13,35
Houston Rockets,2016,Donatas Motiejunas,25,5,4,98,16,37,.432,4,9,.444,12,28,.429,.486,8,17,.471,10,16,26,5,4,2,12,11,44
Houston Rockets,2016,Michael Beasley,27,5,0,80,22,46,.478,2,6,.333,20,40,.500,.500,6,7,.857,4,17,21,3,1,0,7,8,52
Houston Rockets,2016,Corey Brewer,29,5,1,77,7,27,.259,1,10,.100,6,17,.353,.278,7,8,.875,3,4,7,8,0,1,6,13,22
Houston Rockets,2016,Clint Capela,21,5,0,43,3,9,.333,0,0,,3,9,.333,.333,2,5,.400,8,12,20,2,3,2,3,5,8
Houston Rockets,2016,Josh Smith,30,4,0,38,6,13,.462,4,8,.500,2,5,.400,.615,0,2,.000,1,1,2,4,1,1,5,7,16
Houston Rockets,2016,K.J. McDaniels,22,4,0,34,4,13,.308,1,3,.333,3,10,.300,.346,0,0,,1,6,7,1,0,3,0,3,9
Houston Rockets,2016,Montrezl Harrell,22,2,0,12,1,3,.333,0,1,.000,1,2,.500,.333,1,2,.500,0,2,2,0,0,0,1,1,3
Houston Rockets,2016,Andrew Goudelock,27,2,0,11,3,6,.500,0,1,.000,3,5,.600,.500,0,0,,0,2,2,0,0,0,3,0,6
Charlotte Hornets,2016,Kemba Walker,25,7,7,260,56,153,.366,14,43,.326,42,110,.382,.412,33,35,.943,3,18,21,28,9,4,12,10,159
Charlotte Hornets,2016,Courtney Lee,30,7,7,257,21,51,.412,4,9,.444,17,42,.405,.451,14,15,.933,5,15,20,9,6,3,5,19,60
Charlotte Hornets,2016,Marvin Williams,29,7,7,228,14,51,.275,6,17,.353,8,34,.235,.333,2,4,.500,7,41,48,6,6,3,2,11,36
Charlotte Hornets,2016,Frank Kaminsky,22,7,5,190,14,46,.304,5,17,.294,9,29,.310,.359,17,21,.810,3,27,30,8,6,5,2,15,50
Charlotte Hornets,2016,Jeremy Lin,27,7,0,189,26,63,.413,3,14,.214,23,49,.469,.437,32,39,.821,3,13,16,18,5,0,11,21,87
Charlotte Hornets,2016,Al Jefferson,31,7,5,168,42,83,.506,0,0,,42,83,.506,.506,9,13,.692,14,29,43,8,4,3,6,12,93
Charlotte Hornets,2016,Nicolas Batum,27,5,2,144,17,45,.378,6,22,.273,11,23,.478,.444,17,20,.850,2,16,18,10,2,0,8,6,57
Charlotte Hornets,2016,Cody Zeller,23,7,2,137,21,38,.553,0,0,,21,38,.553,.553,17,21,.810,9,28,37,2,1,3,7,20,59
Charlotte Hornets,2016,Spencer Hawes,27,5,0,53,6,13,.462,1,4,.250,5,9,.556,.500,5,6,.833,3,13,16,3,1,2,4,5,18
Charlotte Hornets,2016,Troy Daniels,24,4,0,18,1,8,.125,0,3,.000,1,5,.200,.125,0,0,,0,2,2,0,0,0,0,2,2
Charlotte Hornets,2016,Jeremy Lamb,23,3,0,12,5,9,.556,1,1,1.000,4,8,.500,.611,0,0,,1,3,4,1,0,0,0,0,11
Charlotte Hornets,2016,Jorge Gutierrez,27,3,0,12,0,3,.000,0,0,,0,3,.000,.000,0,0,,0,2,2,2,0,0,1,0,0
Charlotte Hornets,2016,Aaron Harrison,21,2,0,7,0,0,,0,0,,0,0,,,0,0,,0,1,1,0,0,0,0,1,0
Charlotte Hornets,2016,Tyler Hansbrough,30,2,0,6,0,0,,0,0,,0,0,,,0,0,,0,0,0,0,0,0,0,0,0
Memphis Grizzlies,2016,Matt Barnes,35,4,4,139,16,46,.348,3,18,.167,13,28,.464,.380,8,10,.800,5,24,29,11,4,1,13,13,43
Memphis Grizzlies,2016,Zach Randolph,34,4,4,120,23,62,.371,0,0,,23,62,.371,.371,6,7,.857,15,20,35,7,1,0,7,10,52
Memphis Grizzlies,2016,Jordan Farmar,29,4,4,113,10,31,.323,4,12,.333,6,19,.316,.387,3,3,1.000,0,6,6,16,3,1,10,4,27
Memphis Grizzlies,2016,Lance Stephenson,25,4,0,95,23,44,.523,2,5,.400,21,39,.538,.545,4,5,.800,1,5,6,7,1,0,3,10,52
Memphis Grizzlies,2016,Tony Allen,34,4,2,94,10,33,.303,1,7,.143,9,26,.346,.318,9,13,.692,6,5,11,3,5,2,6,11,30
Memphis Grizzlies,2016,Vince Carter,39,4,4,91,15,33,.455,7,10,.700,8,23,.348,.561,8,8,1.000,5,10,15,5,2,1,3,9,45
Memphis Grizzlies,2016,Xavier Munford,23,4,0,89,9,28,.321,1,8,.125,8,20,.400,.339,0,2,.000,1,8,9,10,6,3,5,8,19
Memphis Grizzlies,2016,Chris Andersen,37,4,2,79,5,12,.417,0,0,,5,12,.417,.417,5,8,.625,13,18,31,3,2,3,5,4,15
Memphis Grizzlies,2016,JaMychal Green,25,4,0,72,12,22,.545,0,1,.000,12,21,.571,.545,3,6,.500,5,10,15,3,3,5,4,12,27
Memphis Grizzlies,2016,Jarell Martin,21,2,0,46,3,8,.375,0,0,,3,8,.375,.375,3,6,.500,4,3,7,1,3,0,3,4,9
Memphis Grizzlies,2016,P.J. Hairston,23,2,0,22,2,6,.333,1,3,.333,1,3,.333,.417,0,2,.000,0,0,0,0,1,0,1,1,5
Dallas Mavericks,2015,Monta Ellis,29,5,5,197,52,111,.468,11,30,.367,41,81,.506,.518,15,20,.750,4,12,16,26,10,3,16,18,130
Dallas Mavericks,2015,Dirk Nowitzki,36,5,5,181,38,84,.452,4,17,.235,34,67,.507,.476,26,28,.929,4,48,52,12,2,2,10,16,106
Dallas Mavericks,2015,Tyson Chandler,32,5,5,160,19,29,.655,0,0,,19,29,.655,.655,13,26,.500,27,27,54,1,3,6,5,16,51
Dallas Mavericks,2015,J.J. Barea,30,5,2,154,25,57,.439,4,16,.250,21,41,.512,.474,5,6,.833,5,19,24,37,4,0,14,17,59
Dallas Mavericks,2015,Al-Farouq Aminu,24,5,2,150,17,31,.548,7,11,.636,10,20,.500,.661,15,19,.789,14,22,36,6,10,8,6,15,56
Dallas Mavericks,2015,Amar'e Stoudemire,32,5,0,75,15,35,.429,0,0,,15,35,.429,.429,9,13,.692,7,9,16,3,1,3,7,16,39
Dallas Mavericks,2015,Devin Harris,31,4,0,74,8,23,.348,0,11,.000,8,12,.667,.348,8,9,.889,1,7,8,4,2,0,4,10,24
Dallas Mavericks,2015,Richard Jefferson,34,4,2,51,5,14,.357,3,8,.375,2,6,.333,.464,2,2,1.000,0,2,2,1,2,0,3,9,15
Dallas Mavericks,2015,Charlie Villanueva,30,5,0,43,11,25,.440,8,19,.421,3,6,.500,.600,0,0,,4,9,13,3,1,1,0,10,30
Dallas Mavericks,2015,Chandler Parsons,26,1,1,37,5,15,.333,0,4,.000,5,11,.455,.333,0,0,,0,6,6,2,0,0,1,1,10
Dallas Mavericks,2015,Rajon Rondo,28,2,2,37,9,20,.450,1,2,.500,8,18,.444,.475,0,0,,1,1,2,6,0,0,2,6,19
Dallas Mavericks,2015,Raymond Felton,30,3,1,36,4,15,.267,0,4,.000,4,11,.364,.267,3,3,1.000,1,6,7,4,0,0,0,1,11
Dallas Mavericks,2015,Dwight Powell,23,2,0,3,0,1,.000,0,0,,0,1,.000,.000,0,0,,0,1,1,1,0,0,0,1,0
Dallas Mavericks,2015,Bernard James,29,1,0,2,0,0,,0,0,,0,0,,,0,0,,0,0,0,0,0,0,0,0,0
Dallas Mavericks,2015,Greg Smith,24,1,0,1,0,0,,0,0,,0,0,,,0,0,,0,0,0,0,0,0,0,0,0
Houston Rockets,2015,Trevor Ariza,29,17,17,655,75,176,.426,36,96,.375,39,80,.488,.528,38,42,.905,18,91,109,44,30,2,23,51,224
Houston Rockets,2015,James Harden,25,17,17,636,129,294,.439,41,107,.383,88,187,.471,.509,163,178,.916,12,85,97,128,28,7,77,49,462
Houston Rockets,2015,Dwight Howard,29,17,17,574,105,182,.577,0,0,,105,182,.577,.577,68,165,.412,62,176,238,20,23,39,37,60,278
Houston Rockets,2015,Jason Terry,37,17,17,487,57,134,.425,29,82,.354,28,52,.538,.534,13,16,.813,6,32,38,48,15,2,20,46,156
Houston Rockets,2015,Corey Brewer,28,17,0,428,72,167,.431,12,42,.286,60,125,.480,.467,35,55,.636,11,36,47,19,11,4,15,48,191
Houston Rockets,2015,Terrence Jones,23,17,9,401,67,159,.421,3,19,.158,64,140,.457,.431,36,54,.667,29,52,81,17,8,12,16,31,173
Houston Rockets,2015,Josh Smith,29,17,8,396,85,194,.438,27,71,.380,58,123,.472,.508,32,74,.432,26,70,96,46,9,17,38,41,229
Houston Rockets,2015,Pablo Prigioni,37,17,0,293,19,57,.333,12,41,.293,7,16,.438,.439,3,4,.750,6,13,19,39,15,0,12,40,53
Houston Rockets,2015,Clint Capela,20,17,0,127,21,31,.677,0,0,,21,31,.677,.677,15,29,.517,13,29,42,5,3,9,3,19,57
Houston Rockets,2015,Nick Johnson,22,9,0,49,4,17,.235,1,7,.143,3,10,.300,.265,3,3,1.000,1,3,4,4,0,1,4,7,12
Houston Rockets,2015,Kostas Papanikolaou,24,8,0,21,1,4,.250,0,3,.000,1,1,1.000,.250,1,2,.500,0,2,2,0,0,0,5,4,3
Houston Rockets,2015,Joey Dorsey,31,6,0,13,0,2,.000,0,0,,0,2,.000,.000,1,2,.500,1,3,4,2,0,0,1,2,1
Los Angeles Clippers,2015,Blake Griffin,25,14,14,557,140,274,.511,1,7,.143,139,267,.521,.513,76,106,.717,38,140,178,86,14,14,45,43,357
Los Angeles Clippers,2015,J.J. Redick,30,14,14,540,70,161,.435,35,88,.398,35,73,.479,.543,33,35,.943,0,30,30,24,10,5,26,36,208
Los Angeles Clippers,2015,DeAndre Jordan,26,14,14,482,58,81,.716,0,0,,58,81,.716,.716,67,157,.427,49,138,187,16,16,33,17,42,183
Los Angeles Clippers,2015,Chris Paul,29,12,12,445,95,189,.503,27,65,.415,68,124,.548,.574,48,51,.941,7,46,53,105,22,3,26,37,265
Los Angeles Clippers,2015,Matt Barnes,34,14,14,409,38,100,.380,16,60,.267,22,40,.550,.460,15,20,.750,16,55,71,22,20,10,16,54,107
Los Angeles Clippers,2015,Jamal Crawford,34,14,0,379,67,186,.360,18,74,.243,49,112,.438,.409,26,30,.867,6,24,30,27,13,3,17,34,178
Los Angeles Clippers,2015,Austin Rivers,22,14,2,250,46,105,.438,13,35,.371,33,70,.471,.500,12,19,.632,6,18,24,16,10,4,12,28,117
Los Angeles Clippers,2015,Glen Davis,29,14,0,144,17,38,.447,0,1,.000,17,37,.459,.447,7,9,.778,9,18,27,3,5,5,9,33,41
Los Angeles Clippers,2015,Spencer Hawes,26,8,0,57,9,17,.529,3,6,.500,6,11,.545,.618,2,2,1.000,3,10,13,5,2,3,1,12,23
Los Angeles Clippers,2015,Hedo Turkoglu,35,11,0,55,4,17,.235,2,13,.154,2,4,.500,.294,0,0,,1,6,7,4,4,1,2,10,10
Los Angeles Clippers,2015,Lester Hudson,30,7,0,38,6,14,.429,2,7,.286,4,7,.571,.500,0,0,,0,1,1,7,2,1,3,8,14
Los Angeles Clippers,2015,Dahntay Jones,34,11,0,18,2,2,1.000,0,0,,2,2,1.000,1.000,0,0,,0,1,1,0,2,0,0,7,4
Los Angeles Clippers,2015,Ekpe Udoh,27,4,0,12,1,3,.333,0,0,,1,3,.333,.333,0,0,,0,3,3,0,0,0,0,3,2
San Antonio Spurs,2015,Tim Duncan,38,7,7,250,53,90,.589,0,1,.000,53,89,.596,.589,19,34,.559,19,59,78,23,9,10,7,26,125
San Antonio Spurs,2015,Kawhi Leonard,23,7,7,250,52,109,.477,11,26,.423,41,83,.494,.528,27,35,.771,13,39,52,18,8,4,15,18,142
San Antonio Spurs,2015,Tony Parker,32,7,7,210,33,91,.363,0,9,.000,33,82,.402,.363,10,17,.588,4,19,23,25,2,0,11,14,76
San Antonio Spurs,2015,Danny Green,27,7,7,204,21,61,.344,12,40,.300,9,21,.429,.443,4,6,.667,7,15,22,15,7,7,5,12,58
San Antonio Spurs,2015,Boris Diaw,32,7,0,198,34,71,.479,4,18,.222,30,53,.566,.507,9,13,.692,13,30,43,25,5,3,9,24,81
San Antonio Spurs,2015,Manu Ginobili,37,7,0,131,15,43,.349,8,22,.364,7,21,.333,.442,18,23,.783,4,20,24,32,4,6,14,19,56
San Antonio Spurs,2015,Tiago Splitter,30,7,7,123,9,24,.375,0,0,,9,24,.375,.375,6,19,.316,13,18,31,9,4,1,7,17,24
San Antonio Spurs,2015,Marco Belinelli,28,7,0,116,20,39,.513,14,30,.467,6,9,.667,.692,11,13,.846,2,11,13,10,2,0,5,10,65
San Antonio Spurs,2015,Patrick Mills,26,7,0,112,21,42,.500,16,28,.571,5,14,.357,.690,13,13,1.000,4,15,19,8,2,0,5,15,71
San Antonio Spurs,2015,Aron Baynes,28,4,0,40,3,10,.300,0,0,,3,10,.300,.300,3,3,1.000,3,7,10,1,0,0,3,9,9
San Antonio Spurs,2015,Matt Bonner,34,7,0,36,2,10,.200,2,9,.222,0,1,.000,.300,0,0,,0,6,6,1,0,1,1,8,6
San Antonio Spurs,2015,Cory Joseph,23,4,0,22,5,6,.833,0,0,,5,6,.833,.833,1,2,.500,0,1,1,0,0,1,1,2,11
San Antonio Spurs,2015,Jeff Ayres,27,3,0,12,0,1,.000,0,0,,0,1,.000,.000,0,0,,0,3,3,2,0,0,0,0,0
Golden State Warriors,2015,Stephen Curry,26,21,21,826,200,439,.456,98,232,.422,102,207,.493,.567,96,115,.835,20,85,105,134,39,3,82,47,594
Golden State Warriors,2015,Draymond Green,24,21,21,784,100,240,.417,24,91,.264,76,149,.510,.467,64,87,.736,46,166,212,109,38,25,58,89,288
Golden State Warriors,2015,Klay Thompson,24,21,21,761,149,334,.446,57,146,.390,92,188,.489,.531,36,45,.800,9,72,81,54,16,19,41,64,391
Golden State Warriors,2015,Harrison Barnes,22,21,21,681,88,200,.440,22,62,.355,66,138,.478,.495,25,34,.735,45,65,110,32,17,11,22,45,223
Golden State Warriors,2015,Andre Iguodala,31,21,3,635,81,171,.474,29,82,.354,52,89,.584,.558,27,65,.415,16,78,94,75,25,7,14,42,218
Golden State Warriors,2015,Andrew Bogut,30,19,18,440,42,75,.560,0,1,.000,42,74,.568,.560,5,13,.385,41,112,153,36,11,34,26,69,89
Golden State Warriors,2015,Shaun Livingston,29,21,0,375,42,79,.532,0,1,.000,42,78,.538,.532,21,25,.840,13,38,51,38,8,5,21,32,105
Golden State Warriors,2015,Leandro Barbosa,32,21,0,229,39,88,.443,8,23,.348,31,65,.477,.489,18,22,.818,8,19,27,18,6,1,12,24,104
Golden State Warriors,2015,Festus Ezeli,25,20,0,183,27,50,.540,0,0,,27,50,.540,.540,16,29,.552,24,38,62,6,1,10,12,25,70
Golden State Warriors,2015,David Lee,31,13,0,107,16,40,.400,0,0,,16,40,.400,.400,8,15,.533,11,23,34,8,3,2,2,17,40
Golden State Warriors,2015,Marreese Speights,27,10,0,67,14,42,.333,0,0,,14,42,.333,.333,9,15,.600,8,13,21,4,4,3,4,14,37
Golden State Warriors,2015,Justin Holiday,25,5,0,11,1,2,.500,1,1,1.000,0,1,.000,.750,0,0,,0,1,1,1,0,0,2,1,3
Golden State Warriors,2015,James Michael McAdoo,22,5,0,10,2,3,.667,0,0,,2,3,.667,.667,0,0,,1,3,4,0,0,1,1,0,4
Golden State Warriors,2015,Brandon Rush,29,3,0,7,1,6,.167,1,2,.500,0,4,.000,.250,0,0,,1,2,3,0,0,0,0,2,3
Washington Wizards,2015,Bradley Beal,21,10,10,418,81,200,.405,23,63,.365,58,137,.423,.463,49,59,.831,14,41,55,46,16,7,26,19,234
Washington Wizards,2015,Otto Porter,21,10,0,331,39,88,.443,12,32,.375,27,56,.482,.511,10,21,.476,24,56,80,18,12,2,6,16,100
Washington Wizards,2015,Marcin Gortat,30,10,10,307,54,86,.628,0,0,,54,86,.628,.628,16,24,.667,27,61,88,22,6,11,16,29,124
Washington Wizards,2015,Paul Pierce,37,10,10,298,48,99,.485,33,63,.524,15,36,.417,.652,17,20,.850,0,42,42,9,6,7,10,33,146
Washington Wizards,2015,John Wall,24,7,7,273,43,110,.391,3,17,.176,40,93,.430,.405,33,39,.846,5,28,33,83,10,10,27,13,122
Washington Wizards,2015,Nene Hilario,32,10,10,257,34,76,.447,0,0,,34,76,.447,.447,11,23,.478,25,41,66,15,9,3,14,32,79
Washington Wizards,2015,Ramon Sessions,28,10,3,218,26,70,.371,10,25,.400,16,45,.356,.443,13,19,.684,2,22,24,23,4,1,10,14,75
Washington Wizards,2015,Drew Gooden,33,10,0,178,23,61,.377,12,26,.462,11,35,.314,.475,10,13,.769,13,42,55,8,2,10,14,21,68
Washington Wizards,2015,Kevin Seraphin,25,6,0,72,15,31,.484,0,0,,15,31,.484,.484,3,6,.500,3,16,19,2,2,1,4,10,33
Washington Wizards,2015,Will Bynum,32,3,0,31,7,14,.500,1,2,.500,6,12,.500,.536,4,5,.800,2,1,3,3,2,1,5,6,19
Washington Wizards,2015,Garrett Temple,28,4,0,26,1,6,.167,0,3,.000,1,3,.333,.167,5,8,.625,1,2,3,1,2,0,3,4,7
Washington Wizards,2015,Rasual Butler,35,2,0,7,0,1,.000,0,1,.000,0,0,,.000,0,0,,0,1,1,1,0,0,0,2,0
Washington Wizards,2015,Kris Humphries,29,1,0,5,1,1,1.000,0,0,,1,1,1.000,1.000,0,0,,0,3,3,0,0,0,0,1,2
Washington Wizards,2015,Martell Webster,28,1,0,4,1,2,.500,0,1,.000,1,1,1.000,.500,0,0,,0,0,0,0,0,0,0,0,2
New Orleans Pelicans,2015,Anthony Davis,21,4,4,172,47,87,.540,0,2,.000,47,85,.553,.540,32,36,.889,9,35,44,8,5,12,13,12,126
New Orleans Pelicans,2015,Eric Gordon,26,4,4,143,28,63,.444,13,32,.406,15,31,.484,.548,5,6,.833,2,7,9,15,2,2,10,11,74
New Orleans Pelicans,2015,Tyreke Evans,25,4,4,125,14,43,.326,2,11,.182,12,32,.375,.349,10,17,.588,3,17,20,20,5,1,6,10,40
New Orleans Pelicans,2015,Quincy Pondexter,26,4,4,124,10,28,.357,3,10,.300,7,18,.389,.411,6,7,.857,3,17,20,12,7,0,1,13,29
New Orleans Pelicans,2015,Norris Cole,26,4,0,106,15,36,.417,3,14,.214,12,22,.545,.458,2,3,.667,1,6,7,7,0,1,8,15,35
New Orleans Pelicans,2015,Ryan Anderson,26,4,0,95,16,36,.444,5,12,.417,11,24,.458,.514,6,6,1.000,7,10,17,9,0,2,4,12,43
New Orleans Pelicans,2015,Omer Asik,28,4,4,79,2,10,.200,0,0,,2,10,.200,.200,4,7,.571,12,17,29,6,5,0,5,10,8
New Orleans Pelicans,2015,Dante Cunningham,27,4,0,75,9,11,.818,0,0,,9,11,.818,.818,3,3,1.000,4,14,18,2,3,4,0,7,21
New Orleans Pelicans,2015,Jrue Holiday,24,3,0,55,7,19,.368,1,4,.250,6,15,.400,.395,4,4,1.000,2,1,3,13,2,1,5,3,19
New Orleans Pelicans,2015,Alexis Ajinca,26,3,0,10,4,4,1.000,0,0,,4,4,1.000,1.000,0,0,,0,1,1,1,1,0,0,2,8
Cleveland Cavaliers,2015,LeBron James,30,20,20,844,227,544,.417,25,110,.227,202,434,.465,.440,122,167,.731,37,189,226,169,33,21,82,58,601
Cleveland Cavaliers,2015,Tristan Thompson,23,20,15,727,72,129,.558,0,0,,72,129,.558,.558,48,82,.585,88,128,216,9,5,24,15,50,192
Cleveland Cavaliers,2015,Iman Shumpert,24,20,16,695,59,164,.360,33,93,.355,26,71,.366,.460,30,40,.750,23,75,98,23,25,16,13,50,181
Cleveland Cavaliers,2015,J.R. Smith,29,18,4,560,83,206,.403,51,142,.359,32,64,.500,.527,14,20,.700,9,76,85,22,17,10,15,54,231
Cleveland Cavaliers,2015,Timofey Mozgov,28,20,20,529,74,148,.500,0,0,,74,148,.500,.500,64,81,.790,57,89,146,13,8,36,37,57,212
Cleveland Cavaliers,2015,Matthew Dellavedova,24,20,7,497,47,136,.346,24,76,.316,23,60,.383,.434,25,32,.781,10,31,41,53,9,0,35,52,143
Cleveland Cavaliers,2015,Kyrie Irving,22,13,13,464,81,185,.438,27,60,.450,54,125,.432,.511,58,69,.841,10,37,47,50,17,11,20,29,247
Cleveland Cavaliers,2015,James Jones,34,20,0,311,26,75,.347,22,64,.344,4,11,.364,.493,13,14,.929,1,28,29,9,8,3,5,42,87
Cleveland Cavaliers,2015,Kevin Love,26,4,4,107,17,41,.415,9,21,.429,8,20,.400,.524,14,19,.737,6,22,28,10,1,2,6,12,57
Cleveland Cavaliers,2015,Mike Miller,34,9,1,65,3,5,.600,3,5,.600,0,0,,.900,0,0,,0,10,10,0,1,1,1,6,9
Cleveland Cavaliers,2015,Kendrick Perkins,30,8,0,33,2,8,.250,0,0,,2,8,.250,.250,6,10,.600,2,7,9,0,0,3,4,6,10
Cleveland Cavaliers,2015,Shawn Marion,36,6,0,25,1,6,.167,0,0,,1,6,.167,.167,0,0,,2,4,6,1,2,0,0,1,2
Cleveland Cavaliers,2015,Joe Harris,23,6,0,16,2,6,.333,1,3,.333,1,3,.333,.417,3,4,.750,0,1,1,1,0,0,1,1,8
Cleveland Cavaliers,2015,Brendan Haywood,35,1,0,2,0,1,.000,0,0,,0,1,.000,.000,0,0,,0,0,0,0,0,0,0,0,0
Atlanta Hawks,2015,Paul Millsap,29,16,15,566,85,209,.407,15,49,.306,70,160,.438,.443,58,78,.744,36,103,139,55,25,14,34,52,243
Atlanta Hawks,2015,DeMarre Carroll,28,16,16,558,86,177,.486,29,72,.403,57,105,.543,.568,32,41,.780,26,71,97,32,18,5,15,36,233
Atlanta Hawks,2015,Jeff Teague,26,16,16,529,98,239,.410,21,65,.323,77,174,.443,.454,52,60,.867,10,41,51,107,24,7,43,34,269
Atlanta Hawks,2015,Kyle Korver,33,14,14,526,52,133,.391,39,110,.355,13,23,.565,.538,13,16,.813,1,69,70,33,20,15,21,27,156
Atlanta Hawks,2015,Al Horford,28,16,16,522,107,211,.507,2,9,.222,105,202,.520,.512,15,20,.750,40,98,138,59,13,23,25,34,231
Atlanta Hawks,2015,Kent Bazemore,25,16,2,303,30,71,.423,6,28,.214,24,43,.558,.465,21,31,.677,3,50,53,13,11,9,11,25,87
Atlanta Hawks,2015,Dennis Schroder,21,16,0,290,56,145,.386,8,34,.235,48,111,.432,.414,24,28,.857,5,24,29,62,9,0,27,28,144
Atlanta Hawks,2015,Pero Antic,32,15,1,199,16,50,.320,11,32,.344,5,18,.278,.430,20,25,.800,9,34,43,4,2,3,5,38,63
Atlanta Hawks,2015,Mike Scott,26,11,0,172,21,55,.382,4,26,.154,17,29,.586,.418,4,4,1.000,16,30,46,5,5,0,7,16,50
Atlanta Hawks,2015,Mike Muscala,23,10,0,102,20,33,.606,2,8,.250,18,25,.720,.636,0,0,,8,10,18,1,1,3,4,13,42
Atlanta Hawks,2015,Shelvin Mack,24,10,0,99,15,39,.385,6,21,.286,9,18,.500,.462,3,6,.500,2,9,11,10,8,0,2,7,39
Atlanta Hawks,2015,John Jenkins,23,4,0,21,4,6,.667,2,4,.500,2,2,1.000,.833,0,0,,1,2,3,0,0,0,0,2,10
Atlanta Hawks,2015,Elton Brand,35,3,0,4,0,1,.000,0,0,,0,1,.000,.000,1,2,.500,0,1,1,0,0,0,0,3,1
Brooklyn Nets,2015,Joe Johnson,33,6,6,249,34,94,.362,12,41,.293,22,53,.415,.426,19,24,.792,5,41,46,29,7,0,5,16,99
Brooklyn Nets,2015,Brook Lopez,26,6,6,234,43,87,.494,0,0,,43,87,.494,.494,33,40,.825,20,34,54,5,4,13,6,18,119
Brooklyn Nets,2015,Bojan Bogdanovic,25,6,5,206,23,59,.390,11,33,.333,12,26,.462,.483,5,7,.714,3,20,23,10,4,2,8,12,62
Brooklyn Nets,2015,Deron Williams,30,6,6,192,27,69,.391,11,26,.423,16,43,.372,.471,6,7,.857,3,34,37,33,8,0,16,18,71
Brooklyn Nets,2015,Thaddeus Young,26,6,6,190,29,66,.439,0,4,.000,29,62,.468,.439,5,12,.417,17,26,43,16,5,1,14,15,63
Brooklyn Nets,2015,Jarrett Jack,31,6,0,153,28,54,.519,5,15,.333,23,39,.590,.565,13,13,1.000,2,23,25,27,7,1,20,14,74
Brooklyn Nets,2015,Alan Anderson,32,6,0,142,25,41,.610,10,16,.625,15,25,.600,.732,6,9,.667,2,19,21,7,4,1,8,9,66
Brooklyn Nets,2015,Mason Plumlee,24,6,0,49,4,6,.667,0,0,,4,6,.667,.667,4,11,.364,2,6,8,2,4,2,3,10,12
Brooklyn Nets,2015,Mirza Teletovic,29,3,0,16,0,5,.000,0,4,.000,0,1,.000,.000,0,0,,0,4,4,0,1,0,1,1,0
Brooklyn Nets,2015,Earl Clark,27,2,0,13,2,10,.200,2,3,.667,0,7,.000,.300,0,0,,0,2,2,0,1,0,0,1,6
Brooklyn Nets,2015,Markel Brown,23,2,1,10,2,5,.400,0,2,.000,2,3,.667,.400,2,2,1.000,2,0,2,1,0,0,2,0,6
Brooklyn Nets,2015,Darius Morris,24,1,0,5,0,1,.000,0,0,,0,1,.000,.000,0,0,,0,0,0,0,0,0,0,0,0
Brooklyn Nets,2015,Jerome Jordan,28,1,0,5,0,2,.000,0,0,,0,2,.000,.000,0,0,,1,1,2,0,0,0,1,0,0
Toronto Raptors,2015,DeMar DeRozan,25,4,4,159,32,80,.400,3,8,.375,29,72,.403,.419,14,17,.824,5,20,25,23,6,0,10,12,81
Toronto Raptors,2015,Kyle Lowry,28,4,4,131,18,57,.316,5,23,.217,13,34,.382,.360,8,11,.727,7,15,22,19,5,0,12,18,49
Toronto Raptors,2015,Amir Johnson,27,4,2,112,20,29,.690,0,1,.000,20,28,.714,.690,6,12,.500,7,21,28,4,1,3,7,16,46
Toronto Raptors,2015,Terrence Ross,23,4,4,107,11,29,.379,6,18,.333,5,11,.455,.483,0,0,,0,6,6,4,3,4,2,10,28
Toronto Raptors,2015,Patrick Patterson,25,4,0,106,15,27,.556,7,15,.467,8,12,.667,.685,4,4,1.000,4,10,14,5,3,0,3,5,41
Toronto Raptors,2015,Jonas Valanciunas,22,4,4,106,19,38,.500,0,0,,19,38,.500,.500,7,8,.875,9,28,37,2,2,1,4,7,45
Toronto Raptors,2015,Lou Williams,28,4,0,102,16,51,.314,4,21,.190,12,30,.400,.353,15,18,.833,2,5,7,5,6,0,3,9,51
Toronto Raptors,2015,Greivis Vasquez,28,4,0,101,11,29,.379,5,14,.357,6,15,.400,.466,3,3,1.000,0,7,7,12,2,0,4,15,30
Toronto Raptors,2015,Tyler Hansbrough,29,4,2,48,1,5,.200,0,0,,1,5,.200,.200,3,4,.750,1,5,6,3,2,1,2,8,5
Toronto Raptors,2015,James Johnson,27,2,0,12,2,6,.333,0,0,,2,6,.333,.333,0,6,.000,0,2,2,1,0,0,0,0,4
Toronto Raptors,2015,Greg Stiemsma,29,1,0,2,2,2,1.000,0,0,,2,2,1.000,1.000,1,2,.500,0,0,0,0,0,0,0,0,5